criterion	depth	min split	min leaf	seed	gain
gini	3	3	1	000	 1784333
gini	3	3	10	000	 1784333
gini	3	3	50	000	 1784333
gini	3	3	100	000	 1784333
gini	3	10	1	000	 1784333
gini	3	10	10	000	 1784333
gini	3	10	50	000	 1784333
gini	3	10	100	000	 1784333
gini	3	50	1	000	 1784333
gini	3	50	10	000	 1784333
gini	3	50	50	000	 1784333
gini	3	50	100	000	 1784333
gini	3	100	1	000	 1784333
gini	3	100	10	000	 1784333
gini	3	100	50	000	 1784333
gini	3	100	100	000	 1784333
gini	5	3	1	000	 1703000
gini	5	3	10	000	 1702666
gini	5	3	50	000	 1777666
gini	5	3	100	000	 1783333
gini	5	10	1	000	 1702000
gini	5	10	10	000	 1703333
gini	5	10	50	000	 1777666
gini	5	10	100	000	 1783333
gini	5	50	1	000	 1702000
gini	5	50	10	000	 1701333
gini	5	50	50	000	 1777666
gini	5	50	100	000	 1783333
gini	5	100	1	000	 1699000
gini	5	100	10	000	 1699666
gini	5	100	50	000	 1777666
gini	5	100	100	000	 1783333
gini	10	3	1	000	 1687666
gini	10	3	10	000	 2090333
gini	10	3	50	000	 2211333
gini	10	3	100	000	 2263333
gini	10	10	1	000	 1707666
gini	10	10	10	000	 2090333
gini	10	10	50	000	 2211000
gini	10	10	100	000	 2268000
gini	10	50	1	000	 2071666
gini	10	50	10	000	 2252333
gini	10	50	50	000	 2212333
gini	10	50	100	000	 2264333
gini	10	100	1	000	 2145000
gini	10	100	10	000	 2267666
gini	10	100	50	000	 2211666
gini	10	100	100	000	 2268000
gini	20	3	1	000	 773333
gini	20	3	10	000	 1598000
gini	20	3	50	000	 1800000
gini	20	3	100	000	 1862666
gini	20	10	1	000	 868000
gini	20	10	10	000	 1500666
gini	20	10	50	000	 1807666
gini	20	10	100	000	 1860333
gini	20	50	1	000	 1745666
gini	20	50	10	000	 1856000
gini	20	50	50	000	 1791000
gini	20	50	100	000	 1867666
gini	20	100	1	000	 2065666
gini	20	100	10	000	 2074666
gini	20	100	50	000	 1792000
gini	20	100	100	000	 1860333
gini	0	3	1	000	
gini	0	3	10	000	
gini	0	3	50	000	
gini	0	3	100	000	
gini	0	10	1	000	
gini	0	10	10	000	
gini	0	10	50	000	
gini	0	10	100	000	
gini	0	50	1	000	
gini	0	50	10	000	
gini	0	50	50	000	
gini	0	50	100	000	
gini	0	100	1	000	
gini	0	100	10	000	
gini	0	100	50	000	
gini	0	100	100	000	
entropy	3	3	1	000	 1809666
entropy	3	3	10	000	 1809666
entropy	3	3	50	000	 1809666
entropy	3	3	100	000	 1809666
entropy	3	10	1	000	 1809666
entropy	3	10	10	000	 1809666
entropy	3	10	50	000	 1809666
entropy	3	10	100	000	 1809666
entropy	3	50	1	000	 1809666
entropy	3	50	10	000	 1809666
entropy	3	50	50	000	 1809666
entropy	3	50	100	000	 1809666
entropy	3	100	1	000	 1809666
entropy	3	100	10	000	 1809666
entropy	3	100	50	000	 1809666
entropy	3	100	100	000	 1809666
entropy	5	3	1	000	 2238666
entropy	5	3	10	000	 2238666
entropy	5	3	50	000	 2235666
entropy	5	3	100	000	 2250333
entropy	5	10	1	000	 2238666
entropy	5	10	10	000	 2238666
entropy	5	10	50	000	 2235666
entropy	5	10	100	000	 2250333
entropy	5	50	1	000	 2238666
entropy	5	50	10	000	 2238666
entropy	5	50	50	000	 2235666
entropy	5	50	100	000	 2250333
entropy	5	100	1	000	 2235666
entropy	5	100	10	000	 2235666
entropy	5	100	50	000	 2235666
entropy	5	100	100	000	 2250333
entropy	10	3	1	000	 1707000
entropy	10	3	10	000	 1816666
entropy	10	3	50	000	 2137000
entropy	10	3	100	000	 2163333
entropy	10	10	1	000	 1722333
entropy	10	10	10	000	 1800000
entropy	10	10	50	000	 2137666
entropy	10	10	100	000	 2163000
entropy	10	50	1	000	 1980000
entropy	10	50	10	000	 2007666
entropy	10	50	50	000	 2137666
entropy	10	50	100	000	 2163000
entropy	10	100	1	000	 2030000
entropy	10	100	10	000	 1975000
entropy	10	100	50	000	 2136000
entropy	10	100	100	000	 2163000
entropy	20	3	1	000	 628666
entropy	20	3	10	000	 1263000
entropy	20	3	50	000	 1737666
entropy	20	3	100	000	 1827000
entropy	20	10	1	000	 873000
entropy	20	10	10	000	 1317666
entropy	20	10	50	000	 1702333
entropy	20	10	100	000	 1826666
entropy	20	50	1	000	 1723000
entropy	20	50	10	000	 1653333
entropy	20	50	50	000	 1703666
entropy	20	50	100	000	 1826666
entropy	20	100	1	000	 1891333
entropy	20	100	10	000	 1781000
entropy	20	100	50	000	 1699666
entropy	20	100	100	000	 1827000
entropy	0	3	1	000	
entropy	0	3	10	000	
entropy	0	3	50	000	
entropy	0	3	100	000	
entropy	0	10	1	000	
entropy	0	10	10	000	
entropy	0	10	50	000	
entropy	0	10	100	000	
entropy	0	50	1	000	
entropy	0	50	10	000	
entropy	0	50	50	000	
entropy	0	50	100	000	
entropy	0	100	1	000	
entropy	0	100	10	000	
entropy	0	100	50	000	
entropy	0	100	100	000	
gini	3	3	1	312	 1453000
gini	3	3	10	312	 1453000
gini	3	3	50	312	 1453000
gini	3	3	100	312	 1453000
gini	3	10	1	312	 1453000
gini	3	10	10	312	 1453000
gini	3	10	50	312	 1453000
gini	3	10	100	312	 1453000
gini	3	50	1	312	 1453000
gini	3	50	10	312	 1453000
gini	3	50	50	312	 1453000
gini	3	50	100	312	 1453000
gini	3	100	1	312	 1453000
gini	3	100	10	312	 1453000
gini	3	100	50	312	 1453000
gini	3	100	100	312	 1453000
gini	5	3	1	312	 1455333
gini	5	3	10	312	 1457333
gini	5	3	50	312	 1459666
gini	5	3	100	312	 1472333
gini	5	10	1	312	 1455333
gini	5	10	10	312	 1457333
gini	5	10	50	312	 1459666
gini	5	10	100	312	 1472333
gini	5	50	1	312	 1453000
gini	5	50	10	312	 1453000
gini	5	50	50	312	 1459666
gini	5	50	100	312	 1472333
gini	5	100	1	312	 1453000
gini	5	100	10	312	 1453000
gini	5	100	50	312	 1459666
gini	5	100	100	312	 1472333
gini	10	3	1	312	 1286000
gini	10	3	10	312	 1303000
gini	10	3	50	312	 2231666
gini	10	3	100	312	 2267000
gini	10	10	1	312	 1288333
gini	10	10	10	312	 1253000
gini	10	10	50	312	 2232666
gini	10	10	100	312	 2267333
gini	10	50	1	312	 1809666
gini	10	50	10	312	 1679000
gini	10	50	50	312	 2232333
gini	10	50	100	312	 2267000
gini	10	100	1	312	 1857666
gini	10	100	10	312	 1782333
gini	10	100	50	312	 2233333
gini	10	100	100	312	 2266333
gini	20	3	1	312	 562333
gini	20	3	10	312	 1106333
gini	20	3	50	312	 1716333
gini	20	3	100	312	 1799333
gini	20	10	1	312	 740666
gini	20	10	10	312	 1059666
gini	20	10	50	312	 1685666
gini	20	10	100	312	 1819333
gini	20	50	1	312	 1680000
gini	20	50	10	312	 1556666
gini	20	50	50	312	 1665666
gini	20	50	100	312	 1800666
gini	20	100	1	312	 1782333
gini	20	100	10	312	 1725666
gini	20	100	50	312	 1698000
gini	20	100	100	312	 1819000
gini	0	3	1	312	
gini	0	3	10	312	
gini	0	3	50	312	
gini	0	3	100	312	
gini	0	10	1	312	
gini	0	10	10	312	
gini	0	10	50	312	
gini	0	10	100	312	
gini	0	50	1	312	
gini	0	50	10	312	
gini	0	50	50	312	
gini	0	50	100	312	
gini	0	100	1	312	
gini	0	100	10	312	
gini	0	100	50	312	
gini	0	100	100	312	
entropy	3	3	1	312	 1740000
entropy	3	3	10	312	 1740000
entropy	3	3	50	312	 1740000
entropy	3	3	100	312	 1740000
entropy	3	10	1	312	 1740000
entropy	3	10	10	312	 1740000
entropy	3	10	50	312	 1740000
entropy	3	10	100	312	 1740000
entropy	3	50	1	312	 1740000
entropy	3	50	10	312	 1740000
entropy	3	50	50	312	 1740000
entropy	3	50	100	312	 1740000
entropy	3	100	1	312	 1740000
entropy	3	100	10	312	 1740000
entropy	3	100	50	312	 1740000
entropy	3	100	100	312	 1740000
entropy	5	3	1	312	 1910333
entropy	5	3	10	312	 1791000
entropy	5	3	50	312	 1932666
entropy	5	3	100	312	 1882000
entropy	5	10	1	312	 1879666
entropy	5	10	10	312	 1821666
entropy	5	10	50	312	 1932666
entropy	5	10	100	312	 1882000
entropy	5	50	1	312	 1879666
entropy	5	50	10	312	 1821666
entropy	5	50	50	312	 1932666
entropy	5	50	100	312	 1882000
entropy	5	100	1	312	 1910333
entropy	5	100	10	312	 1791000
entropy	5	100	50	312	 1932666
entropy	5	100	100	312	 1882000
entropy	10	3	1	312	 1288666
entropy	10	3	10	312	 1379000
entropy	10	3	50	312	 1822333
entropy	10	3	100	312	 1858000
entropy	10	10	1	312	 1337666
entropy	10	10	10	312	 1376666
entropy	10	10	50	312	 1821666
entropy	10	10	100	312	 1889333
entropy	10	50	1	312	 1632666
entropy	10	50	10	312	 1553333
entropy	10	50	50	312	 1823666
entropy	10	50	100	312	 1889333
entropy	10	100	1	312	 1723000
entropy	10	100	10	312	 1621000
entropy	10	100	50	312	 1823333
entropy	10	100	100	312	 1858666
entropy	20	3	1	312	 666333
entropy	20	3	10	312	 1053333
entropy	20	3	50	312	 1575000
entropy	20	3	100	312	 1529666
entropy	20	10	1	312	 828333
entropy	20	10	10	312	 950000
entropy	20	10	50	312	 1592000
entropy	20	10	100	312	 1495666
entropy	20	50	1	312	 1424000
entropy	20	50	10	312	 1279333
entropy	20	50	50	312	 1569333
entropy	20	50	100	312	 1493666
entropy	20	100	1	312	 1487666
entropy	20	100	10	312	 1318333
entropy	20	100	50	312	 1575333
entropy	20	100	100	312	 1505666
entropy	0	3	1	312	
entropy	0	3	10	312	
entropy	0	3	50	312	
entropy	0	3	100	312	
entropy	0	10	1	312	
entropy	0	10	10	312	
entropy	0	10	50	312	
entropy	0	10	100	312	
entropy	0	50	1	312	
entropy	0	50	10	312	
entropy	0	50	50	312	
entropy	0	50	100	312	
entropy	0	100	1	312	
entropy	0	100	10	312	
entropy	0	100	50	312	
entropy	0	100	100	312	
gini	3	3	1	652	 1771666
gini	3	3	10	652	 1771666
gini	3	3	50	652	 1759333
gini	3	3	100	652	 1771666
gini	3	10	1	652	 1771666
gini	3	10	10	652	 1771666
gini	3	10	50	652	 1759333
gini	3	10	100	652	 1771666
gini	3	50	1	652	 1771666
gini	3	50	10	652	 1771666
gini	3	50	50	652	 1759333
gini	3	50	100	652	 1771666
gini	3	100	1	652	 1771666
gini	3	100	10	652	 1771666
gini	3	100	50	652	 1759333
gini	3	100	100	652	 1771666
gini	5	3	1	652	 1857666
gini	5	3	10	652	 1928666
gini	5	3	50	652	 1938666
gini	5	3	100	652	 1955666
gini	5	10	1	652	 1857666
gini	5	10	10	652	 1928666
gini	5	10	50	652	 1938666
gini	5	10	100	652	 1955666
gini	5	50	1	652	 1870000
gini	5	50	10	652	 1954333
gini	5	50	50	652	 1973000
gini	5	50	100	652	 1955666
gini	5	100	1	652	 1870333
gini	5	100	10	652	 1955666
gini	5	100	50	652	 1973000
gini	5	100	100	652	 1955666
gini	10	3	1	652	 2011666
gini	10	3	10	652	 2042666
gini	10	3	50	652	 2318000
gini	10	3	100	652	 2445000
gini	10	10	1	652	 2117333
gini	10	10	10	652	 1993333
gini	10	10	50	652	 2280333
gini	10	10	100	652	 2443666
gini	10	50	1	652	 2329000
gini	10	50	10	652	 2269333
gini	10	50	50	652	 2280333
gini	10	50	100	652	 2443666
gini	10	100	1	652	 2412333
gini	10	100	10	652	 2505666
gini	10	100	50	652	 2314000
gini	10	100	100	652	 2445000
gini	20	3	1	652	 1146666
gini	20	3	10	652	 1376666
gini	20	3	50	652	 2089000
gini	20	3	100	652	 2333333
gini	20	10	1	652	 1540333
gini	20	10	10	652	 1381333
gini	20	10	50	652	 2135000
gini	20	10	100	652	 2334666
gini	20	50	1	652	 2020666
gini	20	50	10	652	 1714000
gini	20	50	50	652	 2131000
gini	20	50	100	652	 2338000
gini	20	100	1	652	 2250333
gini	20	100	10	652	 2062666
gini	20	100	50	652	 2041000
gini	20	100	100	652	 2336000
gini	0	3	1	652	
gini	0	3	10	652	
gini	0	3	50	652	
gini	0	3	100	652	
gini	0	10	1	652	
gini	0	10	10	652	
gini	0	10	50	652	
gini	0	10	100	652	
gini	0	50	1	652	
gini	0	50	10	652	
gini	0	50	50	652	
gini	0	50	100	652	
gini	0	100	1	652	
gini	0	100	10	652	
gini	0	100	50	652	
gini	0	100	100	652	
entropy	3	3	1	652	 1536000
entropy	3	3	10	652	 1536000
entropy	3	3	50	652	 1536000
entropy	3	3	100	652	 1536000
entropy	3	10	1	652	 1536000
entropy	3	10	10	652	 1536000
entropy	3	10	50	652	 1536000
entropy	3	10	100	652	 1536000
entropy	3	50	1	652	 1536000
entropy	3	50	10	652	 1536000
entropy	3	50	50	652	 1536000
entropy	3	50	100	652	 1536000
entropy	3	100	1	652	 1536000
entropy	3	100	10	652	 1536000
entropy	3	100	50	652	 1536000
entropy	3	100	100	652	 1536000
entropy	5	3	1	652	 2400666
entropy	5	3	10	652	 2400666
entropy	5	3	50	652	 2396666
entropy	5	3	100	652	 2376000
entropy	5	10	1	652	 2400666
entropy	5	10	10	652	 2400666
entropy	5	10	50	652	 2396666
entropy	5	10	100	652	 2376000
entropy	5	50	1	652	 2400666
entropy	5	50	10	652	 2400666
entropy	5	50	50	652	 2396666
entropy	5	50	100	652	 2376000
entropy	5	100	1	652	 2400666
entropy	5	100	10	652	 2400666
entropy	5	100	50	652	 2396666
entropy	5	100	100	652	 2376000
entropy	10	3	1	652	 1662000
entropy	10	3	10	652	 1801666
entropy	10	3	50	652	 2257666
entropy	10	3	100	652	 2242666
entropy	10	10	1	652	 1733000
entropy	10	10	10	652	 1801000
entropy	10	10	50	652	 2257666
entropy	10	10	100	652	 2257000
entropy	10	50	1	652	 1877000
entropy	10	50	10	652	 2014000
entropy	10	50	50	652	 2243666
entropy	10	50	100	652	 2240000
entropy	10	100	1	652	 2025000
entropy	10	100	10	652	 2129333
entropy	10	100	50	652	 2242000
entropy	10	100	100	652	 2239333
entropy	20	3	1	652	 553333
entropy	20	3	10	652	 1174333
entropy	20	3	50	652	 1954333
entropy	20	3	100	652	 2011333
entropy	20	10	1	652	 853333
entropy	20	10	10	652	 1120333
entropy	20	10	50	652	 1931666
entropy	20	10	100	652	 2070000
entropy	20	50	1	652	 1557000
entropy	20	50	10	652	 1629000
entropy	20	50	50	652	 1915666
entropy	20	50	100	652	 2029000
entropy	20	100	1	652	 1757333
entropy	20	100	10	652	 1662000
entropy	20	100	50	652	 1952333
entropy	20	100	100	652	 2037333
entropy	0	3	1	652	
entropy	0	3	10	652	
entropy	0	3	50	652	
entropy	0	3	100	652	
entropy	0	10	1	652	
entropy	0	10	10	652	
entropy	0	10	50	652	
entropy	0	10	100	652	
entropy	0	50	1	652	
entropy	0	50	10	652	
entropy	0	50	50	652	
entropy	0	50	100	652	
entropy	0	100	1	652	
entropy	0	100	10	652	
entropy	0	100	50	652	
entropy	0	100	100	652	
gini	3	3	1	829	 1524666
gini	3	3	10	829	 1524666
gini	3	3	50	829	 1524666
gini	3	3	100	829	 1524666
gini	3	10	1	829	 1524666
gini	3	10	10	829	 1524666
gini	3	10	50	829	 1524666
gini	3	10	100	829	 1524666
gini	3	50	1	829	 1524666
gini	3	50	10	829	 1524666
gini	3	50	50	829	 1524666
gini	3	50	100	829	 1524666
gini	3	100	1	829	 1524666
gini	3	100	10	829	 1524666
gini	3	100	50	829	 1524666
gini	3	100	100	829	 1524666
gini	5	3	1	829	 1770333
gini	5	3	10	829	 1772666
gini	5	3	50	829	 1801333
gini	5	3	100	829	 1812666
gini	5	10	1	829	 1769666
gini	5	10	10	829	 1772666
gini	5	10	50	829	 1801333
gini	5	10	100	829	 1812666
gini	5	50	1	829	 1769666
gini	5	50	10	829	 1768333
gini	5	50	50	829	 1801333
gini	5	50	100	829	 1812666
gini	5	100	1	829	 1769666
gini	5	100	10	829	 1768333
gini	5	100	50	829	 1801333
gini	5	100	100	829	 1812666
gini	10	3	1	829	 1498000
gini	10	3	10	829	 1640333
gini	10	3	50	829	 2036666
gini	10	3	100	829	 2111666
gini	10	10	1	829	 1614000
gini	10	10	10	829	 1641666
gini	10	10	50	829	 2041000
gini	10	10	100	829	 2111666
gini	10	50	1	829	 1782000
gini	10	50	10	829	 1789333
gini	10	50	50	829	 2039666
gini	10	50	100	829	 2111666
gini	10	100	1	829	 1852666
gini	10	100	10	829	 1939666
gini	10	100	50	829	 2057333
gini	10	100	100	829	 2111666
gini	20	3	1	829	 622666
gini	20	3	10	829	 1253333
gini	20	3	50	829	 1546000
gini	20	3	100	829	 1854666
gini	20	10	1	829	 932666
gini	20	10	10	829	 1334000
gini	20	10	50	829	 1518666
gini	20	10	100	829	 1836666
gini	20	50	1	829	 1477666
gini	20	50	10	829	 1545333
gini	20	50	50	829	 1564666
gini	20	50	100	829	 1837666
gini	20	100	1	829	 1599333
gini	20	100	10	829	 1736000
gini	20	100	50	829	 1547000
gini	20	100	100	829	 1833333
gini	0	3	1	829	
gini	0	3	10	829	
gini	0	3	50	829	
gini	0	3	100	829	
gini	0	10	1	829	
gini	0	10	10	829	
gini	0	10	50	829	
gini	0	10	100	829	
gini	0	50	1	829	
gini	0	50	10	829	
gini	0	50	50	829	
gini	0	50	100	829	
gini	0	100	1	829	
gini	0	100	10	829	
gini	0	100	50	829	
gini	0	100	100	829	
entropy	3	3	1	829	 1713666
entropy	3	3	10	829	 1713666
entropy	3	3	50	829	 1713666
entropy	3	3	100	829	 1713666
entropy	3	10	1	829	 1713666
entropy	3	10	10	829	 1713666
entropy	3	10	50	829	 1713666
entropy	3	10	100	829	 1713666
entropy	3	50	1	829	 1713666
entropy	3	50	10	829	 1713666
entropy	3	50	50	829	 1713666
entropy	3	50	100	829	 1713666
entropy	3	100	1	829	 1713666
entropy	3	100	10	829	 1713666
entropy	3	100	50	829	 1713666
entropy	3	100	100	829	 1713666
entropy	5	3	1	829	 1827666
entropy	5	3	10	829	 1761000
entropy	5	3	50	829	 1761666
entropy	5	3	100	829	 1740000
entropy	5	10	1	829	 1827666
entropy	5	10	10	829	 1761000
entropy	5	10	50	829	 1761666
entropy	5	10	100	829	 1740000
entropy	5	50	1	829	 1827666
entropy	5	50	10	829	 1761000
entropy	5	50	50	829	 1761666
entropy	5	50	100	829	 1740000
entropy	5	100	1	829	 1831333
entropy	5	100	10	829	 1764666
entropy	5	100	50	829	 1761666
entropy	5	100	100	829	 1740000
entropy	10	3	1	829	 1343333
entropy	10	3	10	829	 1587666
entropy	10	3	50	829	 1742333
entropy	10	3	100	829	 1855666
entropy	10	10	1	829	 1359000
entropy	10	10	10	829	 1623666
entropy	10	10	50	829	 1724666
entropy	10	10	100	829	 1855666
entropy	10	50	1	829	 1638000
entropy	10	50	10	829	 1724000
entropy	10	50	50	829	 1744333
entropy	10	50	100	829	 1855666
entropy	10	100	1	829	 1736666
entropy	10	100	10	829	 1850666
entropy	10	100	50	829	 1742333
entropy	10	100	100	829	 1855666
entropy	20	3	1	829	 684000
entropy	20	3	10	829	 1175000
entropy	20	3	50	829	 1278666
entropy	20	3	100	829	 1396333
entropy	20	10	1	829	 817000
entropy	20	10	10	829	 1146000
entropy	20	10	50	829	 1249666
entropy	20	10	100	829	 1432000
entropy	20	50	1	829	 1414000
entropy	20	50	10	829	 1269000
entropy	20	50	50	829	 1283666
entropy	20	50	100	829	 1437333
entropy	20	100	1	829	 1467333
entropy	20	100	10	829	 1481666
entropy	20	100	50	829	 1302000
entropy	20	100	100	829	 1416333
entropy	0	3	1	829	
entropy	0	3	10	829	
entropy	0	3	50	829	
entropy	0	3	100	829	
entropy	0	10	1	829	
entropy	0	10	10	829	
entropy	0	10	50	829	
entropy	0	10	100	829	
entropy	0	50	1	829	
entropy	0	50	10	829	
entropy	0	50	50	829	
entropy	0	50	100	829	
entropy	0	100	1	829	
entropy	0	100	10	829	
entropy	0	100	50	829	
entropy	0	100	100	829	
gini	3	3	1	192	 1411000
gini	3	3	10	192	 1411000
gini	3	3	50	192	 1411000
gini	3	3	100	192	 1411000
gini	3	10	1	192	 1411000
gini	3	10	10	192	 1411000
gini	3	10	50	192	 1411000
gini	3	10	100	192	 1411000
gini	3	50	1	192	 1411000
gini	3	50	10	192	 1411000
gini	3	50	50	192	 1411000
gini	3	50	100	192	 1411000
gini	3	100	1	192	 1411000
gini	3	100	10	192	 1411000
gini	3	100	50	192	 1411000
gini	3	100	100	192	 1411000
gini	5	3	1	192	 1670333
gini	5	3	10	192	 1669000
gini	5	3	50	192	 1600333
gini	5	3	100	192	 1660333
gini	5	10	1	192	 1670666
gini	5	10	10	192	 1669000
gini	5	10	50	192	 1600333
gini	5	10	100	192	 1660333
gini	5	50	1	192	 1683666
gini	5	50	10	192	 1682000
gini	5	50	50	192	 1600333
gini	5	50	100	192	 1660333
gini	5	100	1	192	 1678666
gini	5	100	10	192	 1678666
gini	5	100	50	192	 1600333
gini	5	100	100	192	 1660333
gini	10	3	1	192	 1468666
gini	10	3	10	192	 1631000
gini	10	3	50	192	 2028666
gini	10	3	100	192	 2141000
gini	10	10	1	192	 1570333
gini	10	10	10	192	 1662000
gini	10	10	50	192	 2029333
gini	10	10	100	192	 2141000
gini	10	50	1	192	 1945000
gini	10	50	10	192	 1910000
gini	10	50	50	192	 2028666
gini	10	50	100	192	 2141000
gini	10	100	1	192	 1959333
gini	10	100	10	192	 1949666
gini	10	100	50	192	 2029000
gini	10	100	100	192	 2141000
gini	20	3	1	192	 569000
gini	20	3	10	192	 1505333
gini	20	3	50	192	 1635000
gini	20	3	100	192	 1862000
gini	20	10	1	192	 788666
gini	20	10	10	192	 1529000
gini	20	10	50	192	 1577000
gini	20	10	100	192	 1862000
gini	20	50	1	192	 1585000
gini	20	50	10	192	 1852333
gini	20	50	50	192	 1567333
gini	20	50	100	192	 1862000
gini	20	100	1	192	 1868666
gini	20	100	10	192	 1910666
gini	20	100	50	192	 1598666
gini	20	100	100	192	 1862000
gini	0	3	1	192	
gini	0	3	10	192	
gini	0	3	50	192	
gini	0	3	100	192	
gini	0	10	1	192	
gini	0	10	10	192	
gini	0	10	50	192	
gini	0	10	100	192	
gini	0	50	1	192	
gini	0	50	10	192	
gini	0	50	50	192	
gini	0	50	100	192	
gini	0	100	1	192	
gini	0	100	10	192	
gini	0	100	50	192	
gini	0	100	100	192	
entropy	3	3	1	192	 1856333
entropy	3	3	10	192	 1856333
entropy	3	3	50	192	 1856333
entropy	3	3	100	192	 1856333
entropy	3	10	1	192	 1856333
entropy	3	10	10	192	 1856333
entropy	3	10	50	192	 1856333
entropy	3	10	100	192	 1856333
entropy	3	50	1	192	 1856333
entropy	3	50	10	192	 1856333
entropy	3	50	50	192	 1856333
entropy	3	50	100	192	 1856333
entropy	3	100	1	192	 1856333
entropy	3	100	10	192	 1856333
entropy	3	100	50	192	 1856333
entropy	3	100	100	192	 1856333
entropy	5	3	1	192	 1819333
entropy	5	3	10	192	 1819666
entropy	5	3	50	192	 1831666
entropy	5	3	100	192	 1921333
entropy	5	10	1	192	 1819333
entropy	5	10	10	192	 1819666
entropy	5	10	50	192	 1831666
entropy	5	10	100	192	 1921333
entropy	5	50	1	192	 1818333
entropy	5	50	10	192	 1818333
entropy	5	50	50	192	 1831666
entropy	5	50	100	192	 1921333
entropy	5	100	1	192	 1816000
entropy	5	100	10	192	 1816000
entropy	5	100	50	192	 1831666
entropy	5	100	100	192	 1921333
entropy	10	3	1	192	 1114000
entropy	10	3	10	192	 1415333
entropy	10	3	50	192	 1566666
entropy	10	3	100	192	 1709000
entropy	10	10	1	192	 1139000
entropy	10	10	10	192	 1416000
entropy	10	10	50	192	 1565000
entropy	10	10	100	192	 1698000
entropy	10	50	1	192	 1675333
entropy	10	50	10	192	 1697333
entropy	10	50	50	192	 1564666
entropy	10	50	100	192	 1709333
entropy	10	100	1	192	 1687000
entropy	10	100	10	192	 1739000
entropy	10	100	50	192	 1565000
entropy	10	100	100	192	 1697333
entropy	20	3	1	192	 716333
entropy	20	3	10	192	 1267000
entropy	20	3	50	192	 1453333
entropy	20	3	100	192	 1399666
entropy	20	10	1	192	 1009000
entropy	20	10	10	192	 1249000
entropy	20	10	50	192	 1467333
entropy	20	10	100	192	 1414666
entropy	20	50	1	192	 1807000
entropy	20	50	10	192	 1686666
entropy	20	50	50	192	 1457000
entropy	20	50	100	192	 1402000
entropy	20	100	1	192	 1825333
entropy	20	100	10	192	 1540333
entropy	20	100	50	192	 1441666
entropy	20	100	100	192	 1399000
entropy	0	3	1	192	
entropy	0	3	10	192	
entropy	0	3	50	192	
entropy	0	3	100	192	
entropy	0	10	1	192	
entropy	0	10	10	192	
entropy	0	10	50	192	
entropy	0	10	100	192	
entropy	0	50	1	192	
entropy	0	50	10	192	
entropy	0	50	50	192	
entropy	0	50	100	192	
entropy	0	100	1	192	
entropy	0	100	10	192	
entropy	0	100	50	192	
entropy	0	100	100	192	
gini	3	3	1	431	 1484333
gini	3	3	10	431	 1499333
gini	3	3	50	431	 1499333
gini	3	3	100	431	 1484333
gini	3	10	1	431	 1484333
gini	3	10	10	431	 1499333
gini	3	10	50	431	 1499333
gini	3	10	100	431	 1484333
gini	3	50	1	431	 1484333
gini	3	50	10	431	 1499333
gini	3	50	50	431	 1499333
gini	3	50	100	431	 1484333
gini	3	100	1	431	 1484333
gini	3	100	10	431	 1499333
gini	3	100	50	431	 1499333
gini	3	100	100	431	 1484333
gini	5	3	1	431	 1710333
gini	5	3	10	431	 1719333
gini	5	3	50	431	 1724000
gini	5	3	100	431	 1697666
gini	5	10	1	431	 1710000
gini	5	10	10	431	 1719333
gini	5	10	50	431	 1724000
gini	5	10	100	431	 1697666
gini	5	50	1	431	 1707666
gini	5	50	10	431	 1717333
gini	5	50	50	431	 1724000
gini	5	50	100	431	 1697666
gini	5	100	1	431	 1714333
gini	5	100	10	431	 1724000
gini	5	100	50	431	 1724000
gini	5	100	100	431	 1697666
gini	10	3	1	431	 1598333
gini	10	3	10	431	 1787666
gini	10	3	50	431	 2291666
gini	10	3	100	431	 2165000
gini	10	10	1	431	 1523000
gini	10	10	10	431	 1737000
gini	10	10	50	431	 2241000
gini	10	10	100	431	 2165000
gini	10	50	1	431	 1978333
gini	10	50	10	431	 2035666
gini	10	50	50	431	 2241000
gini	10	50	100	431	 2165000
gini	10	100	1	431	 2029333
gini	10	100	10	431	 2163666
gini	10	100	50	431	 2291666
gini	10	100	100	431	 2165000
gini	20	3	1	431	 709000
gini	20	3	10	431	 1361333
gini	20	3	50	431	 2014333
gini	20	3	100	431	 1879000
gini	20	10	1	431	 1018666
gini	20	10	10	431	 1429666
gini	20	10	50	431	 2083333
gini	20	10	100	431	 1857000
gini	20	50	1	431	 1898333
gini	20	50	10	431	 1748333
gini	20	50	50	431	 2009000
gini	20	50	100	431	 1876333
gini	20	100	1	431	 2148000
gini	20	100	10	431	 1950333
gini	20	100	50	431	 2105000
gini	20	100	100	431	 1845333
gini	0	3	1	431	
gini	0	3	10	431	
gini	0	3	50	431	
gini	0	3	100	431	
gini	0	10	1	431	
gini	0	10	10	431	
gini	0	10	50	431	
gini	0	10	100	431	
gini	0	50	1	431	
gini	0	50	10	431	
gini	0	50	50	431	
gini	0	50	100	431	
gini	0	100	1	431	
gini	0	100	10	431	
gini	0	100	50	431	
gini	0	100	100	431	
entropy	3	3	1	431	 1454333
entropy	3	3	10	431	 1454333
entropy	3	3	50	431	 1454333
entropy	3	3	100	431	 1454333
entropy	3	10	1	431	 1454333
entropy	3	10	10	431	 1454333
entropy	3	10	50	431	 1454333
entropy	3	10	100	431	 1454333
entropy	3	50	1	431	 1454333
entropy	3	50	10	431	 1454333
entropy	3	50	50	431	 1454333
entropy	3	50	100	431	 1454333
entropy	3	100	1	431	 1454333
entropy	3	100	10	431	 1454333
entropy	3	100	50	431	 1454333
entropy	3	100	100	431	 1454333
entropy	5	3	1	431	 2094666
entropy	5	3	10	431	 2092666
entropy	5	3	50	431	 2102333
entropy	5	3	100	431	 2082000
entropy	5	10	1	431	 2094666
entropy	5	10	10	431	 2092666
entropy	5	10	50	431	 2102333
entropy	5	10	100	431	 2082000
entropy	5	50	1	431	 2092666
entropy	5	50	10	431	 2092666
entropy	5	50	50	431	 2102333
entropy	5	50	100	431	 2082000
entropy	5	100	1	431	 2092666
entropy	5	100	10	431	 2092666
entropy	5	100	50	431	 2102333
entropy	5	100	100	431	 2082000
entropy	10	3	1	431	 1529666
entropy	10	3	10	431	 1582666
entropy	10	3	50	431	 1872333
entropy	10	3	100	431	 1840000
entropy	10	10	1	431	 1593666
entropy	10	10	10	431	 1635333
entropy	10	10	50	431	 1868666
entropy	10	10	100	431	 1820333
entropy	10	50	1	431	 1846000
entropy	10	50	10	431	 1704000
entropy	10	50	50	431	 1872000
entropy	10	50	100	431	 1856000
entropy	10	100	1	431	 1970333
entropy	10	100	10	431	 1861333
entropy	10	100	50	431	 1868333
entropy	10	100	100	431	 1840333
entropy	20	3	1	431	 326333
entropy	20	3	10	431	 1150000
entropy	20	3	50	431	 1789000
entropy	20	3	100	431	 1717000
entropy	20	10	1	431	 788000
entropy	20	10	10	431	 1110000
entropy	20	10	50	431	 1766333
entropy	20	10	100	431	 1738333
entropy	20	50	1	431	 1609000
entropy	20	50	10	431	 1452000
entropy	20	50	50	431	 1769000
entropy	20	50	100	431	 1716666
entropy	20	100	1	431	 1853000
entropy	20	100	10	431	 1622000
entropy	20	100	50	431	 1768666
entropy	20	100	100	431	 1716666
entropy	0	3	1	431	
entropy	0	3	10	431	
entropy	0	3	50	431	
entropy	0	3	100	431	
entropy	0	10	1	431	
entropy	0	10	10	431	
entropy	0	10	50	431	
entropy	0	10	100	431	
entropy	0	50	1	431	
entropy	0	50	10	431	
entropy	0	50	50	431	
entropy	0	50	100	431	
entropy	0	100	1	431	
entropy	0	100	10	431	
entropy	0	100	50	431	
entropy	0	100	100	431	
gini	3	3	1	232	 1818000
gini	3	3	10	232	 1817666
gini	3	3	50	232	 1817666
gini	3	3	100	232	 1817666
gini	3	10	1	232	 1818000
gini	3	10	10	232	 1817666
gini	3	10	50	232	 1817666
gini	3	10	100	232	 1817666
gini	3	50	1	232	 1818000
gini	3	50	10	232	 1817666
gini	3	50	50	232	 1817666
gini	3	50	100	232	 1817666
gini	3	100	1	232	 1818000
gini	3	100	10	232	 1817666
gini	3	100	50	232	 1817666
gini	3	100	100	232	 1817666
gini	5	3	1	232	 1880333
gini	5	3	10	232	 1873666
gini	5	3	50	232	 1826000
gini	5	3	100	232	 1835666
gini	5	10	1	232	 1879666
gini	5	10	10	232	 1873666
gini	5	10	50	232	 1826000
gini	5	10	100	232	 1835666
gini	5	50	1	232	 1879666
gini	5	50	10	232	 1873666
gini	5	50	50	232	 1826000
gini	5	50	100	232	 1835666
gini	5	100	1	232	 1875666
gini	5	100	10	232	 1869666
gini	5	100	50	232	 1826000
gini	5	100	100	232	 1835666
gini	10	3	1	232	 1802666
gini	10	3	10	232	 1985333
gini	10	3	50	232	 2586333
gini	10	3	100	232	 2526666
gini	10	10	1	232	 1968666
gini	10	10	10	232	 2005666
gini	10	10	50	232	 2569666
gini	10	10	100	232	 2544000
gini	10	50	1	232	 2279666
gini	10	50	10	232	 2261333
gini	10	50	50	232	 2569666
gini	10	50	100	232	 2544000
gini	10	100	1	232	 2305333
gini	10	100	10	232	 2357333
gini	10	100	50	232	 2586666
gini	10	100	100	232	 2544000
gini	20	3	1	232	 431000
gini	20	3	10	232	 1483333
gini	20	3	50	232	 2150666
gini	20	3	100	232	 2136666
gini	20	10	1	232	 796333
gini	20	10	10	232	 1468333
gini	20	10	50	232	 2175333
gini	20	10	100	232	 2135000
gini	20	50	1	232	 1659666
gini	20	50	10	232	 1868000
gini	20	50	50	232	 2192333
gini	20	50	100	232	 2150000
gini	20	100	1	232	 2043333
gini	20	100	10	232	 2118666
gini	20	100	50	232	 2159000
gini	20	100	100	232	 2148666
gini	0	3	1	232	
gini	0	3	10	232	
gini	0	3	50	232	
gini	0	3	100	232	
gini	0	10	1	232	
gini	0	10	10	232	
gini	0	10	50	232	
gini	0	10	100	232	
gini	0	50	1	232	
gini	0	50	10	232	
gini	0	50	50	232	
gini	0	50	100	232	
gini	0	100	1	232	
gini	0	100	10	232	
gini	0	100	50	232	
gini	0	100	100	232	
entropy	3	3	1	232	 2143333
entropy	3	3	10	232	 2143333
entropy	3	3	50	232	 2143333
entropy	3	3	100	232	 2143333
entropy	3	10	1	232	 2143333
entropy	3	10	10	232	 2143333
entropy	3	10	50	232	 2143333
entropy	3	10	100	232	 2143333
entropy	3	50	1	232	 2143333
entropy	3	50	10	232	 2143333
