 201404 201404 20 20 10 100
 201404 201403 20 20 10 100
 201404 201402 20 20 10 100
 201404 201401 20 20 10 100
 201404 201312 20 20 10 100
 201404 201311 20 20 10 100
 201404 201310 20 20 10 100
 201404 201309 20 20 10 100
 201404 201308 20 20 10 100
 201404 201307 20 20 10 100
 201404 201306 20 20 10 100
 201404 201305 20 20 10 100
 201404 201304 20 20 10 100
 4527200 201404 201404 20 20 10 100
 2879300 201404 201403 20 20 10 100
 1224300 201404 201402 20 20 10 100
 -2100600 201404 201401 20 20 10 100
 1251600 201404 201312 20 20 10 100
 2150300 201404 201311 20 20 10 100
 963100 201404 201310 20 20 10 100
 776600 201404 201309 20 20 10 100
 1478600 201404 201308 20 20 10 100
 1286900 201404 201307 20 20 10 100
 1292500 201404 201306 20 20 10 100
 1929700 201404 201305 20 20 10 100
 1044500 201404 201304 20 20 10 100
 2336200 201403 201404 20 20 10 100
 4560700 201403 201403 20 20 10 100
 2111600 201403 201402 20 20 10 100
 -12247900 201403 201401 20 20 10 100
 1245900 201403 201312 20 20 10 100
 2224700 201403 201311 20 20 10 100
 1040200 201403 201310 20 20 10 100
 606500 201403 201309 20 20 10 100
 1481300 201403 201308 20 20 10 100
 1245800 201403 201307 20 20 10 100
 1217100 201403 201306 20 20 10 100
 1917200 201403 201305 20 20 10 100
 1042000 201403 201304 20 20 10 100
 1166000 201402 201404 20 20 10 100
 2587800 201402 201403 20 20 10 100
 4764500 201402 201402 20 20 10 100
 -14717900 201402 201401 20 20 10 100
 1171300 201402 201312 20 20 10 100
 2401300 201402 201311 20 20 10 100
 903100 201402 201310 20 20 10 100
 617000 201402 201309 20 20 10 100
 1290700 201402 201308 20 20 10 100
 1058900 201402 201307 20 20 10 100
 1102800 201402 201306 20 20 10 100
 1754100 201402 201305 20 20 10 100
 935600 201402 201304 20 20 10 100
 2470300 201401 201404 20 20 10 100
 2732300 201401 201403 20 20 10 100
 2493800 201401 201402 20 20 10 100
 3008900 201401 201401 20 20 10 100
 1410100 201401 201312 20 20 10 100
 2197600 201401 201311 20 20 10 100
 1124700 201401 201310 20 20 10 100
 1051800 201401 201309 20 20 10 100
 1482100 201401 201308 20 20 10 100
 1287800 201401 201307 20 20 10 100
 1402300 201401 201306 20 20 10 100
 1935800 201401 201305 20 20 10 100
 1149200 201401 201304 20 20 10 100
 2273300 201312 201404 20 20 10 100
 2616200 201312 201403 20 20 10 100
 2781900 201312 201402 20 20 10 100
 -5091400 201312 201401 20 20 10 100
 2568900 201312 201312 20 20 10 100
 2233100 201312 201311 20 20 10 100
 1092200 201312 201310 20 20 10 100
 990700 201312 201309 20 20 10 100
 1535900 201312 201308 20 20 10 100
 1274600 201312 201307 20 20 10 100
 1402100 201312 201306 20 20 10 100
 1927500 201312 201305 20 20 10 100
 1210000 201312 201304 20 20 10 100
 876200 201311 201404 20 20 10 100
 1542800 201311 201403 20 20 10 100
 1564200 201311 201402 20 20 10 100
 -8044200 201311 201401 20 20 10 100
 732800 201311 201312 20 20 10 100
 5283000 201311 201311 20 20 10 100
 501400 201311 201310 20 20 10 100
 234700 201311 201309 20 20 10 100
 958100 201311 201308 20 20 10 100
 659300 201311 201307 20 20 10 100
 752400 201311 201306 20 20 10 100
 1351200 201311 201305 20 20 10 100
 608700 201311 201304 20 20 10 100
 2356500 201310 201404 20 20 10 100
 2606500 201310 201403 20 20 10 100
 2521400 201310 201402 20 20 10 100
 -1746200 201310 201401 20 20 10 100
 1341300 201310 201312 20 20 10 100
 2192300 201310 201311 20 20 10 100
 2500700 201310 201310 20 20 10 100
 1144400 201310 201309 20 20 10 100
 1553400 201310 201308 20 20 10 100
 1465200 201310 201307 20 20 10 100
 1337100 201310 201306 20 20 10 100
 1960000 201310 201305 20 20 10 100
 1179400 201310 201304 20 20 10 100
 2145700 201309 201404 20 20 10 100
 2450700 201309 201403 20 20 10 100
 2072400 201309 201402 20 20 10 100
 -11042200 201309 201401 20 20 10 100
 1298700 201309 201312 20 20 10 100
 2235300 201309 201311 20 20 10 100
 1138500 201309 201310 20 20 10 100
 2394300 201309 201309 20 20 10 100
 1569100 201309 201308 20 20 10 100
 1304300 201309 201307 20 20 10 100
 1407100 201309 201306 20 20 10 100
 1953700 201309 201305 20 20 10 100
 1168100 201309 201304 20 20 10 100
 1624200 201308 201404 20 20 10 100
 2570100 201308 201403 20 20 10 100
 1290600 201308 201402 20 20 10 100
 -21387400 201308 201401 20 20 10 100
 1205500 201308 201312 20 20 10 100
 2271200 201308 201311 20 20 10 100
 1073100 201308 201310 20 20 10 100
 927400 201308 201309 20 20 10 100
 2901300 201308 201308 20 20 10 100
 1363900 201308 201307 20 20 10 100
 1405000 201308 201306 20 20 10 100
 2003100 201308 201305 20 20 10 100
 1164500 201308 201304 20 20 10 100
 1870000 201307 201404 20 20 10 100
 2591400 201307 201403 20 20 10 100
 1697900 201307 201402 20 20 10 100
 -13297900 201307 201401 20 20 10 100
 1261900 201307 201312 20 20 10 100
 2267900 201307 201311 20 20 10 100
 1073200 201307 201310 20 20 10 100
 721600 201307 201309 20 20 10 100
 1537900 201307 201308 20 20 10 100
 2419800 201307 201307 20 20 10 100
 1430100 201307 201306 20 20 10 100
 1972800 201307 201305 20 20 10 100
 1140600 201307 201304 20 20 10 100
 2190300 201306 201404 20 20 10 100
 2573800 201306 201403 20 20 10 100
 1868300 201306 201402 20 20 10 100
 -2686600 201306 201401 20 20 10 100
 1300600 201306 201312 20 20 10 100
 2238500 201306 201311 20 20 10 100
 1078200 201306 201310 20 20 10 100
 876400 201306 201309 20 20 10 100
 1574700 201306 201308 20 20 10 100
 1330700 201306 201307 20 20 10 100
 2610000 201306 201306 20 20 10 100
 2085500 201306 201305 20 20 10 100
 1209100 201306 201304 20 20 10 100
 2109500 201305 201404 20 20 10 100
 2648800 201305 201403 20 20 10 100
 1731900 201305 201402 20 20 10 100
 -18186300 201305 201401 20 20 10 100
 1185300 201305 201312 20 20 10 100
 2343500 201305 201311 20 20 10 100
 1064400 201305 201310 20 20 10 100
 887800 201305 201309 20 20 10 100
 1521300 201305 201308 20 20 10 100
 1335600 201305 201307 20 20 10 100
 1348700 201305 201306 20 20 10 100
 3231100 201305 201305 20 20 10 100
 1158100 201305 201304 20 20 10 100
 2210200 201304 201404 20 20 10 100
 2497800 201304 201403 20 20 10 100
 2422400 201304 201402 20 20 10 100
 -4361100 201304 201401 20 20 10 100
 1310300 201304 201312 20 20 10 100
 2245400 201304 201311 20 20 10 100
 1116800 201304 201310 20 20 10 100
 1045700 201304 201309 20 20 10 100
 1524200 201304 201308 20 20 10 100
 1293400 201304 201307 20 20 10 100
 1407100 201304 201306 20 20 10 100
 1915500 201304 201305 20 20 10 100
 2305800 201304 201304 20 20 10 100
